{
	"info": {
		"_postman_id": "17085229-f189-42f8-81e3-20090ab6aafb",
		"name": "delivery",
		"schema": "https://schema.getpostman.com/json/collection/v2.1.0/collection.json"
	},
	"item": [
		{
			"name": "order",
			"item": [
				{
					"name": "GET AllOderes",
					"request": {
						"method": "GET",
						"header": [],
						"url": {
							"raw": "http://localhost:8080/api/v1/orders",
							"protocol": "http",
							"host": [
								"localhost"
							],
							"port": "8080",
							"path": [
								"api",
								"v1",
								"orders"
							]
						}
					},
					"response": []
				},
				{
					"name": "POST CreateOrder",
					"request": {
						"method": "POST",
						"header": [],
						"body": {
							"mode": "raw",
							"raw": "{\r\n    \r\n    \"cityStart\": \"LVIV\",\r\n    \"cityFinish\": \"LVIV\",\r\n    \"weight\": 12,\r\n    \"km\": 70,\r\n    \"sum\": 1200,\r\n    \"date\": \"2021-10-31\",\r\n    \"userId\": \"1\"\r\n}",
							"options": {
								"raw": {
									"language": "json"
								}
							}
						},
						"url": {
							"raw": "http://localhost:8080/api/v1/orders",
							"protocol": "http",
							"host": [
								"localhost"
							],
							"port": "8080",
							"path": [
								"api",
								"v1",
								"orders"
							]
						}
					},
					"response": []
				},
				{
					"name": "GET ById",
					"request": {
						"method": "GET",
						"header": [],
						"url": {
							"raw": "http://localhost:8080/api/v1/orders/1",
							"protocol": "http",
							"host": [
								"localhost"
							],
							"port": "8080",
							"path": [
								"api",
								"v1",
								"orders",
								"1"
							]
						}
					},
					"response": []
				},
				{
					"name": "DELETE",
					"request": {
						"method": "DELETE",
						"header": [],
						"url": {
							"raw": "http://localhost:8080/api/v1/orders/1",
							"protocol": "http",
							"host": [
								"localhost"
							],
							"port": "8080",
							"path": [
								"api",
								"v1",
								"orders",
								"1"
							]
						}
					},
					"response": []
				},
				{
					"name": "PUT Order",
					"request": {
						"method": "PUT",
						"header": [],
						"body": {
							"mode": "raw",
							"raw": "{\r\n    \"id\": 11,\r\n    \"cityStart\": \"LVIV\",\r\n    \"cityFinish\": \"KIEV\",\r\n    \"weight\": 20,\r\n    \"km\": 560,\r\n    \"sum\": 11000,\r\n    \"date\": \"2021-11-03\",\r\n    \"userId\": \"3\"\r\n}",
							"options": {
								"raw": {
									"language": "json"
								}
							}
						},
						"url": {
							"raw": "http://localhost:8080/api/v1/orders",
							"protocol": "http",
							"host": [
								"localhost"
							],
							"port": "8080",
							"path": [
								"api",
								"v1",
								"orders"
							]
						}
					},
					"response": []
				}
			]
		},
		{
			"name": "auth",
			"item": [
				{
					"name": "POST Signup",
					"request": {
						"method": "POST",
						"header": [],
						"body": {
							"mode": "raw",
							"raw": "{\r\n    \"name\": \"B\",\r\n    \"surname\": \"B\",\r\n    \"password\": \"b\",\r\n    \"repeatPassword\": \"b\",\r\n    \"email\": \"ppp@ppp.com\"  \r\n\r\n\r\n}",
							"options": {
								"raw": {
									"language": "json"
								}
							}
						},
						"url": {
							"raw": "http://localhost:8080/api/v1/auth/signup",
							"protocol": "http",
							"host": [
								"localhost"
							],
							"port": "8080",
							"path": [
								"api",
								"v1",
								"auth",
								"signup"
							]
						}
					},
					"response": []
				},
				{
					"name": "GET SignIn",
					"request": {
						"method": "POST",
						"header": [],
						"body": {
							"mode": "raw",
							"raw": "{\r\n    \"email\": \"k@k.com\",\r\n    \"password\": \"k\"\r\n\r\n}",
							"options": {
								"raw": {
									"language": "json"
								}
							}
						},
						"url": {
							"raw": "http://localhost:8080/api/v1/auth/signin",
							"protocol": "http",
							"host": [
								"localhost"
							],
							"port": "8080",
							"path": [
								"api",
								"v1",
								"auth",
								"signin"
							]
						}
					},
					"response": []
				},
				{
					"name": "DEL OrderId",
					"request": {
						"method": "POST",
						"header": [],
						"body": {
							"mode": "raw",
							"raw": "{\r\n    \"email\": \"k@k.com\",\r\n    \"password\": \"k\"\r\n\r\n}",
							"options": {
								"raw": {
									"language": "json"
								}
							}
						},
						"url": {
							"raw": "http://localhost:8080/api/v1/auth/signin",
							"protocol": "http",
							"host": [
								"localhost"
							],
							"port": "8080",
							"path": [
								"api",
								"v1",
								"auth",
								"signin"
							]
						}
					},
					"response": []
				}
			]
		},
		{
			"name": "user",
			"item": [
				{
					"name": "PUT User",
					"request": {
						"method": "PUT",
						"header": [],
						"body": {
							"mode": "raw",
							"raw": "{\r\n    \"name\": \"Kolya\",\r\n    \"surname\": \"Kol\",\r\n    \"password\": \"ww\",\r\n    \"repeatPassword\": \"ww\",\r\n    \"email\": \"w@w.com\"\r\n}",
							"options": {
								"raw": {
									"language": "json"
								}
							}
						},
						"url": {
							"raw": "http://localhost:8080/api/v1/user",
							"protocol": "http",
							"host": [
								"localhost"
							],
							"port": "8080",
							"path": [
								"api",
								"v1",
								"user"
							]
						}
					},
					"response": []
				},
				{
					"name": "POST CreateUser",
					"request": {
						"method": "POST",
						"header": [],
						"body": {
							"mode": "raw",
							"raw": "{\r\n    \"id\": 6,\r\n     \"name\": \"QQQQ\",\r\n    \"surname\": \"QQQQQ\",\r\n    \"email\": \"qq@qq.cpm\"\r\n}",
							"options": {
								"raw": {
									"language": "json"
								}
							}
						},
						"url": {
							"raw": "http://localhost:8080/api/v1/user",
							"protocol": "http",
							"host": [
								"localhost"
							],
							"port": "8080",
							"path": [
								"api",
								"v1",
								"user"
							]
						}
					},
					"response": []
				},
				{
					"name": "DELETE ById",
					"request": {
						"method": "DELETE",
						"header": [],
						"body": {
							"mode": "raw",
							"raw": "{\r\n    \"name\": \"Vasya\",\r\n    \"surname\": \"Voyo\",\r\n    \"password\": \"qq\",\r\n    \"repeatPassword\": \"qq\",\r\n    \"email\": \"q@q.com\"\r\n}",
							"options": {
								"raw": {
									"language": "json"
								}
							}
						},
						"url": {
							"raw": "http://localhost:8080/api/v1/user/5",
							"protocol": "http",
							"host": [
								"localhost"
							],
							"port": "8080",
							"path": [
								"api",
								"v1",
								"user",
								"5"
							]
						}
					},
					"response": []
				},
				{
					"name": "GET ById",
					"protocolProfileBehavior": {
						"disableBodyPruning": true
					},
					"request": {
						"method": "GET",
						"header": [],
						"body": {
							"mode": "raw",
							"raw": "{\r\n    \"id\": 1,\r\n    \"name\": \"Tomatsssssss\",\r\n    \"surname\": \"Tomsssssssss\",\r\n    \"email\": \"t@ts.com\"\r\n}",
							"options": {
								"raw": {
									"language": "json"
								}
							}
						},
						"url": {
							"raw": "http://localhost:8080/api/v1/user/6",
							"protocol": "http",
							"host": [
								"localhost"
							],
							"port": "8080",
							"path": [
								"api",
								"v1",
								"user",
								"6"
							]
						}
					},
					"response": []
				},
				{
					"name": "GET AllUsers",
					"protocolProfileBehavior": {
						"disableBodyPruning": true
					},
					"request": {
						"method": "GET",
						"header": [],
						"body": {
							"mode": "raw",
							"raw": "{\r\n    \"name\": \"Kolya\",\r\n    \"surname\": \"Kol\",\r\n    \"password\": \"ww\",\r\n    \"repeatPassword\": \"ww\",\r\n    \"email\": \"w@w.com\"\r\n}",
							"options": {
								"raw": {
									"language": "json"
								}
							}
						},
						"url": {
							"raw": "http://localhost:8080/api/v1/user",
							"protocol": "http",
							"host": [
								"localhost"
							],
							"port": "8080",
							"path": [
								"api",
								"v1",
								"user"
							]
						}
					},
					"response": []
				}
			]
		},
		{
			"name": "userOrders",
			"item": [
				{
					"name": "POST CreateOrder",
					"request": {
						"method": "POST",
						"header": [],
						"body": {
							"mode": "raw",
							"raw": "{\r\n    \"cityStart\": \"Lviv\",\r\n    \"cityFinish\": \"Rivne\",\r\n    \"weight\": 10,\r\n    \"km\": 260,\r\n    \"sum\": 5000,\r\n    \"date\": \"2021-12-15\"\r\n    \r\n\r\n}",
							"options": {
								"raw": {
									"language": "json"
								}
							}
						},
						"url": {
							"raw": "http://localhost:8080/api/v1/user/orders",
							"protocol": "http",
							"host": [
								"localhost"
							],
							"port": "8080",
							"path": [
								"api",
								"v1",
								"user",
								"orders"
							]
						}
					},
					"response": []
				},
				{
					"name": "DEL ById",
					"request": {
						"method": "DELETE",
						"header": [],
						"body": {
							"mode": "raw",
							"raw": "{\r\n    \"cityStart\": \"Lviv\",\r\n    \"cityFinish\": \"Rivne\",\r\n    \"weight\": 10,\r\n    \"km\": 260,\r\n    \"sum\": 5000,\r\n    \"date\": \"2021-12-15\"\r\n    \r\n\r\n}",
							"options": {
								"raw": {
									"language": "json"
								}
							}
						},
						"url": {
							"raw": "http://localhost:8080/api/v1/user/orders/7",
							"protocol": "http",
							"host": [
								"localhost"
							],
							"port": "8080",
							"path": [
								"api",
								"v1",
								"user",
								"orders",
								"7"
							]
						}
					},
					"response": []
				},
				{
					"name": "PUT Order",
					"request": {
						"method": "POST",
						"header": [],
						"body": {
							"mode": "raw",
							"raw": "{\r\n    \"cityStart\": \"Lviv\",\r\n    \"cityFinish\": \"Rivne\",\r\n    \"weight\": 8,\r\n    \"km\": 260,\r\n    \"sum\": 4500,\r\n    \"date\": \"2021-12-17\"\r\n    \r\n\r\n}",
							"options": {
								"raw": {
									"language": "json"
								}
							}
						},
						"url": {
							"raw": "http://localhost:8080/api/v1/user/orders",
							"protocol": "http",
							"host": [
								"localhost"
							],
							"port": "8080",
							"path": [
								"api",
								"v1",
								"user",
								"orders"
							]
						}
					},
					"response": []
				}
			]
		},
		{
			"name": "admin",
			"item": [
				{
					"name": "GET All",
					"protocolProfileBehavior": {
						"disableBodyPruning": true
					},
					"request": {
						"method": "GET",
						"header": [],
						"body": {
							"mode": "raw",
							"raw": "{\r\n    \"id\":\"6\",\r\n    \"cityStart\": \"Lviv\",\r\n    \"cityFinish\": \"Rivne\",\r\n    \"weight\": 8,\r\n    \"km\": 260,\r\n    \"sum\": 100,\r\n    \"date\": \"2021-12-17\"\r\n    \r\n\r\n}",
							"options": {
								"raw": {
									"language": "json"
								}
							}
						},
						"url": {
							"raw": "http://localhost:8080/api/v1/admin/users",
							"protocol": "http",
							"host": [
								"localhost"
							],
							"port": "8080",
							"path": [
								"api",
								"v1",
								"admin",
								"users"
							]
						}
					},
					"response": []
				}
			]
		},
		{
			"name": "PUT User",
			"request": {
				"method": "PUT",
				"header": [],
				"body": {
					"mode": "raw",
					"raw": "{\r\n    \"name\": \"Kolya\",\r\n    \"surname\": \"Kol\",\r\n    \"password\": \"ww\",\r\n    \"repeatPassword\": \"ww\",\r\n    \"email\": \"w@w.com\"\r\n}",
					"options": {
						"raw": {
							"language": "json"
						}
					}
				},
				"url": {
					"raw": "http://localhost:8080/api/v1/users",
					"protocol": "http",
					"host": [
						"localhost"
					],
					"port": "8080",
					"path": [
						"api",
						"v1",
						"users"
					]
				}
			},
			"response": []
		},
		{
			"name": "POST CreateUser",
			"request": {
				"method": "POST",
				"header": [],
				"body": {
					"mode": "raw",
					"raw": "{\r\n    \"id\": 6,\r\n     \"name\": \"QQQQ\",\r\n    \"surname\": \"QQQQQ\",\r\n    \"email\": \"qq@qq.cpm\"\r\n}",
					"options": {
						"raw": {
							"language": "json"
						}
					}
				},
				"url": {
					"raw": "http://localhost:8080/api/v1/users",
					"protocol": "http",
					"host": [
						"localhost"
					],
					"port": "8080",
					"path": [
						"api",
						"v1",
						"users"
					]
				}
			},
			"response": []
		},
		{
			"name": "DELETE ById",
			"request": {
				"method": "DELETE",
				"header": [],
				"body": {
					"mode": "raw",
					"raw": "{\r\n    \"name\": \"Vasya\",\r\n    \"surname\": \"Voyo\",\r\n    \"password\": \"qq\",\r\n    \"repeatPassword\": \"qq\",\r\n    \"email\": \"q@q.com\"\r\n}",
					"options": {
						"raw": {
							"language": "json"
						}
					}
				},
				"url": {
					"raw": "http://localhost:8080/api/v1/users/1",
					"protocol": "http",
					"host": [
						"localhost"
					],
					"port": "8080",
					"path": [
						"api",
						"v1",
						"users",
						"1"
					]
				}
			},
			"response": []
		},
		{
			"name": "GET ById",
			"protocolProfileBehavior": {
				"disableBodyPruning": true
			},
			"request": {
				"method": "GET",
				"header": [],
				"body": {
					"mode": "raw",
					"raw": "{\r\n    \"name\": \"Kolya\",\r\n    \"surname\": \"Kol\",\r\n    \"password\": \"ww\",\r\n    \"repeatPassword\": \"ww\",\r\n    \"email\": \"w@w.com\"\r\n}",
					"options": {
						"raw": {
							"language": "json"
						}
					}
				},
				"url": {
					"raw": "http://localhost:8080/api/v1/users/1",
					"protocol": "http",
					"host": [
						"localhost"
					],
					"port": "8080",
					"path": [
						"api",
						"v1",
						"users",
						"1"
					]
				}
			},
			"response": []
		},
		{
			"name": "GET AllUsers",
			"protocolProfileBehavior": {
				"disableBodyPruning": true
			},
			"request": {
				"method": "GET",
				"header": [],
				"body": {
					"mode": "raw",
					"raw": "{\r\n    \"name\": \"Kolya\",\r\n    \"surname\": \"Kol\",\r\n    \"password\": \"ww\",\r\n    \"repeatPassword\": \"ww\",\r\n    \"email\": \"w@w.com\"\r\n}",
					"options": {
						"raw": {
							"language": "json"
						}
					}
				},
				"url": {
					"raw": "http://localhost:8080/api/v1/user",
					"protocol": "http",
					"host": [
						"localhost"
					],
					"port": "8080",
					"path": [
						"api",
						"v1",
						"user"
					]
				}
			},
			"response": []
		}
	]
}